{
    "name": "User",
    "alias": "user",
    "description": "User module for Inra/Solaid applications",
    "keywords": [],
    "active": 1,
    "order": 0,
    "providers": [
        "Modules\\User\\Providers\\UserServiceProvider"
    ],
    "aliases": {},
    "files": [],
    "requires": []
}
